{
  "BannerCookie": {
    "link": "/article/4"
  },
  "Prime" : {
    "EEC-platform": "Covoiturage Mobigo",
    "description": "Bénéficier d'une prime covoiturage CEE de 150 €"
  },
  "Register" : {
    "conditions" : "Voir la charte de la plateforme"
  },
  "Contact" : {
    "protection-external-link" : "/#/article/4"
  },
  "Events" : {
    "subtitle" : "Pour créer votre évènement, retrouvez le formulaire disponible dans notre <a href='https://covoiturage.viamobigo.fr/boite-a-outils' target='_blank'>kit de covoiturage</a>."
  }
}
