[
  {
    "relation": [
      "delegate_permission/common.handle_all_urls",
      "delegate_permission/common.get_login_creds"
    ],
    "target": {
      "namespace": "android_app",
      "package_name": "fr.mobilaude.mobilaude",
      "sha256_cert_fingerprints": [
        "40:51:08:58:A4:EA:C5:0F:8B:80:45:09:5A:B0:76:B0:57:BA:7C:E1:BB:73:07:85:B7:30:D6:70:C3:8B:EB:EC",
        "5E:4D:BB:5C:06:A1:B6:24:EC:63:71:12:A6:3F:4F:F6:14:C0:B8:DF:8E:E5:19:D6:4A:C8:D4:A4:9D:F7:3E:E3"
      ]
    }
  }
]
