{
	"appId": "eu.covivo.covisoft",
	"appName": "Mobicoop",
	"webDir": "www",
	"server": {
		"androidScheme": "http"
	},
	"plugins": {
		"SplashScreen": {
			"launchAutoHide": false
		},
		"LocalNotifications": {
			"smallIcon": "ic_stat_icon_config_sample",
			"iconColor": "#CE0B7C"
		},
		"PushNotifications": {
			"presentationOptions": [
				"badge",
				"sound",
				"alert"
			]
		}
	}
}
