{
  "Modules": {
    "carpool": "Covoit'"
  },
  "Message": {
    "mobicoop-info": "Pour limiter les tentatives de fraudes, privilégiez la messagerie de Mobicoop pour vos échanges et recevez votre paiement sur notre plateforme ou de la main à la main.",
    "mobicoop-info-plus": "En savoir plus",
    "mobicoop-info-driver": "Pour limiter les tentatives de fraudes, privilégiez la messagerie de Mobicoop pour vos échanges et recevez votre paiement sur notre plateforme ou de la main à la main au passager.",
    "mobicoop-info-passenger": "Pour limiter les tentatives de fraudes, privilégiez la messagerie de Mobicoop pour vos échanges et payez par carte bancaire votre trajet sur notre plateforme ou de la main à la main au conducteur."
  },
  "Register": {
    "address": "Adresse de domicile",
    "title": "Inscription Covoit'"
  },
  "Community": {
    "description": "Une communauté est un regroupement d’inscrits ayant un intérêt en commun. Elle permet par exemple d’identifier les salariés d’une entreprise, d’une association ou d'une commune. La création d'une communauté est un service payant qui vous donnera accès à l'interface d'administration (sur site web) pour pouvoir animer votre communauté. Pour en savoir plus, vous pouvez <a class=\"pointer\" href=\"/#/carpools/contact\">contacter notre équipe ici.</a>"
  },
  "solidaryTransport": {
    "home": {
      "information": "La mobilité solidaire, ce sont des conducteur·rice·s qui s'engagent pour la mobilité de tou·te·s. Vous aussi, rejoignez le réseau de solidarité !"
    }
  },
  "HitchHiking": {
    "register": {
      "title": "Inscription Rezo Pouce"
    }
  },
  "Referral" : {
    "esso": {
      "text": "Lorem ipsum dolor sit amet, consectetur adipiscing elit. Lorem ipsum dolor sit amet, consectetur adipiscing elit.",
      "bannerUrl": "https://upload.wikimedia.org/wikipedia/commons/thumb/0/0e/Esso-Logo.svg/2560px-Esso-Logo.svg.png"
    }
  },
  "Prime": {
    "description": "Bénéficiez jusqu'à 150€ de prime covoiturage sur notre plateforme pour tous vos nouveaux trajets réalisés en France."
  },
  "BannerCookie" : {
    "link": "/article/4"
  }
}
